Statistics
…
B. Open a new R script and save it as a new file called statistics_practical.R in the 2_Code folder. At the top of the script, using comments, write your name and the date. The, load the set of packages listed above with library().

library(tidyverse)
library(broom)
library(rsq)

C. For this practical, well use the kc_house_data.csv data. This dataset contains house sale prices for King County, Washington. It includes homes sold between May 2014 and May 2015. Using the following template, load the data into R and store it as a new object called kc_house.

kc_house <- read_csv(file = "1_Data/kc_house_data.csv")

C. Using print(), summary(), head() and skim(), explore the data to make sure it was loaded correctly.

kc_house

# A tibble: 21,613 x 21
   id         date                  price bedrooms bathrooms sqft_living
   <chr>      <dttm>                <dbl>    <int>     <dbl>       <int>
 1 7129300520 2014-10-13 00:00:00  221900        3      1           1180
 2 6414100192 2014-12-09 00:00:00  538000        3      2.25        2570
 3 5631500400 2015-02-25 00:00:00  180000        2      1            770
 4 2487200875 2014-12-09 00:00:00  604000        4      3           1960
 5 1954400510 2015-02-18 00:00:00  510000        3      2           1680
 6 7237550310 2014-05-12 00:00:00 1225000        4      4.5         5420
 7 1321400060 2014-06-27 00:00:00  257500        3      2.25        1715
 8 2008000270 2015-01-15 00:00:00  291850        3      1.5         1060
 9 2414600126 2015-04-15 00:00:00  229500        3      1           1780
10 3793500160 2015-03-12 00:00:00  323000        3      2.5         1890
# ... with 21,603 more rows, and 15 more variables: sqft_lot <int>,
#   floors <dbl>, waterfront <int>, view <int>, condition <int>,
#   grade <int>, sqft_above <int>, sqft_basement <int>, yr_built <int>,
#   yr_renovated <int>, zipcode <int>, lat <dbl>, long <dbl>,
#   sqft_living15 <int>, sqft_lot15 <int>
…
